Surveys & PCA
…
surveydf %>%
  mutate(
    d185 = ifelse(d185 < 1 | d185 > 6, NA, d185),
    d186 = ifelse(d186 < 1 | d186 > 6, NA, d186),
    d187 = ifelse(d187 < 1 | d187 > 6, NA, d187),
    d188 = ifelse(d188 < 1 | d188 > 6, NA, d188),
    d189 = ifelse(d189 < 1 | d189 > 6, NA, d189),
    d190 = ifelse(d190 < 1 | d190 > 6, NA, d190),
    d191 = ifelse(d191 < 1 | d191 > 6, NA, d191),
    d192 = ifelse(d192 < 1 | d192 > 6, NA, d192),
    d193 = ifelse(d193 < 1 | d193 > 6, NA, d193),
    d194 = ifelse(d194 < 1 | d194 > 6, NA, d194)
)

## # A tibble: 180 x 10
##     d185  d186  d187  d188  d189  d190  d191  d192  d193  d194
##    <dbl> <dbl> <dbl> <dbl> <dbl> <dbl> <dbl> <dbl> <dbl> <dbl>
##  1     4     4     4     4     3     4     3     4     4     5
##  2     5     3     4     3     4     3     4     5     4     3
##  3     4     2     5     4     4     3     4     4     4     3
##  4     2     4     3     4     4     4     4     4     4     3
##  5     4     3     2     3     4     3     4     4     4     3
##  6     5     2     5     5     3     2     5     3     5     2
##  7     5     5     1     3     4     2     5     5     5     6
##  8     5     3     3     4     4     3     3     4     4     4
##  9     3     3     4     4     3     2     4     4     3     4
## 10     4     2     5     4     4     3     5     3     4     2
## # … with 170 more rows
…
From this we can see that the odd items are negative, and the even ones are positive.

From looking at the item labels, it is clear that for those items, if someone strongly agreed (scored 6), then they would be low in Need for Cognition. I want a high score to be high Need for Cognition. As a result, I want to reverse the even items d186, d188, d190, d192, d194.

The quickest way is:

surveydf %>%
  mutate(across(c(d186, d188, d190, d192, d194), function(x) 6 - x))

## # A tibble: 180 x 10
##     d185  d186  d187  d188  d189  d190  d191  d192  d193  d194
##    <dbl> <dbl> <dbl> <dbl> <dbl> <dbl> <dbl> <dbl> <dbl> <dbl>
##  1     4     2     4     2     3     2     3     2     4     1
##  2     5     3     4     3     4     3     4     1     4     3
##  3     4     4     5     2     4     3     4     2     4     3
##  4     2     2     3     2     4     2     4     2     4     3
##  5     4     3     2     3     4     3     4     2     4     3
##  6     5     4     5     1     3     4     5     3     5     4
##  7     5     1     1     3     4     4     5     1     5     0
##  8     5     3     3     2     4     3     3     2     4     2
##  9     3     3     4     2     3     4     4     2     3     2
## 10     4     4     5     2     4     3     5     3     4     4
## # … with 170 more rows
…
R has some handy functions for calculating these scores. Remember that each participant is a row in the data set. We want, for each row, to calculate the sum.
The relevant function is rowSums()!

There is also a rowMeans() function (I bet you can’t guess what that function does!)

Solution 

The sum of the scores for each case is:

surveydf %>%
  mutate(total_score = rowSums(.)) %>% 
  relocate(total_score)   # puts the new column first

## # A tibble: 180 x 11
##    total_score  d185  d186  d187  d188  d189  d190  d191  d192  d193  d194
##          <dbl> <dbl> <dbl> <dbl> <dbl> <dbl> <dbl> <dbl> <dbl> <dbl> <dbl>
##  1          39     4     4     4     4     3     4     3     4     4     5
##  2          38     5     3     4     3     4     3     4     5     4     3
##  3          37     4     2     5     4     4     3     4     4     4     3
##  4          36     2     4     3     4     4     4     4     4     4     3
##  5          34     4     3     2     3     4     3     4     4     4     3
##  6          37     5     2     5     5     3     2     5     3     5     2
##  7          41     5     5     1     3     4     2     5     5     5     6
##  8          37     5     3     3     4     4     3     3     4     4     4
##  9          34     3     3     4     4     3     2     4     4     3     4
## 10          36     4     2     5     4     4     3     5     3     4     2
## # … with 170 more rows

If we were to compute the mean score for each participant, instead, we would do:

surveydf %>%
  mutate(mean_score = rowMeans(.)) %>% 
  relocate(mean_score)

## # A tibble: 180 x 11
##    mean_score  d185  d186  d187  d188  d189  d190  d191  d192  d193  d194
##         <dbl> <dbl> <dbl> <dbl> <dbl> <dbl> <dbl> <dbl> <dbl> <dbl> <dbl>
##  1        3.9     4     4     4     4     3     4     3     4     4     5
##  2        3.8     5     3     4     3     4     3     4     5     4     3
##  3        3.7     4     2     5     4     4     3     4     4     4     3
##  4        3.6     2     4     3     4     4     4     4     4     4     3
##  5        3.4     4     3     2     3     4     3     4     4     4     3
##  6        3.7     5     2     5     5     3     2     5     3     5     2
##  7        4.1     5     5     1     3     4     2     5     5     5     6
##  8        3.7     5     3     3     4     4     3     3     4     4     4
##  9        3.4     3     3     4     4     3     2     4     4     3     4
## 10        3.6     4     2     5     4     4     3     5     3     4     2
## # … with 170 more rows
…
