Introduction to tidyverse
…
And the Arguments section says:

file:

Either a path to a file, a connection, or literal data (either a single string or a raw vector).

Files ending in .gz, .bz2, .xz, or .zip will be automatically uncompressed. Files starting with http://, https://, ftp://, or ftps:// will be automatically downloaded. Remote gz files can also be automatically downloaded and decompressed.

Hence, we will provide either the path to the file (i.e. the address of the file on your PC), if you have downloaded it, or the URL address of the file on the web.

hp <- read_csv(file = 'https://uoepsy.github.io/data/HappyPlanet.csv')
hp

## # A tibble: 140 x 14
##    country region life_expectancy wellbeing happy_life_years footprint
##    <chr>   <chr>            <dbl>     <dbl>            <dbl>     <dbl>
##  1 Afghan… Middl…            59.7       3.8             12.4      0.79
##  2 Albania Post-…            77.3       5.5             34.4      2.21
##  3 Algeria Middl…            74.3       5.6             30.5      2.12
##  4 Argent… Ameri…            75.9       6.5             40.2      3.14
##  5 Armenia Post-…            74.4       4.3             24.0      2.23
##  6 Austra… Asia …            82.1       7.2             53.1      9.31
##  7 Austria Europe            81.0       7.4             54.4      6.06
##  8 Bangla… Asia …            70.8       4.7             23.3      0.72
##  9 Belarus Post-…            70.9       5.7             34.0      5.09
## 10 Belgium Europe            80.4       6.9             49.5      7.44
## # … with 130 more rows, and 8 more variables: inequality_of_outcomes <dbl>,
## #   inequality_adjusted_life_expectancy <dbl>,
## #   inequality_adjusted_wellbeing <dbl>, happy_planet_index <dbl>,
## #   gdp_per_capita <dbl>, population <dbl>, gini_index <chr>, hpi_rank <dbl>
…
So, for each country, they have recorded country name, which “region” it is part of, life expectancy of the country, wellbeing index, and so on.

Manipulating data

To select some specific variables, rather than working with the full 14 attributes, you use the select() function. Let’s select the name and population of each country:

hp %>%
  select(country, population)

## # A tibble: 140 x 2
##    country     population
##    <chr>            <dbl>
##  1 Afghanistan   29726803
##  2 Albania        2900489
##  3 Algeria       37439427
##  4 Argentina     42095224
##  5 Armenia        2978339
##  6 Australia     22728254
##  7 Austria        8429991
##  8 Bangladesh   155257387
##  9 Belarus        9464000
## 10 Belgium       11128246
## # … with 130 more rows

To select all character variables, you can use the select(where(is_character)) function. Let’s check which variables are categorical:

hp %>%
  select(where(is_character))

## # A tibble: 140 x 3
##    country     region                       gini_index      
##    <chr>       <chr>                        <chr>           
##  1 Afghanistan Middle East and North Africa Data unavailable
##  2 Albania     Post-communist               28.96           
##  3 Algeria     Middle East and North Africa Data unavailable
##  4 Argentina   Americas                     42.49           
##  5 Armenia     Post-communist               30.48           
##  6 Australia   Asia Pacific                 Data unavailable
##  7 Austria     Europe                       30.48           
##  8 Bangladesh  Asia Pacific                 Data unavailable
##  9 Belarus     Post-communist               26.01           
## 10 Belgium     Europe                       27.59           
## # … with 130 more rows

So this returns 3 variables out of the 14 ones: country, region and gini_index. But wait, gini_index stores numbers, and the letters come from the fact that are many missing values, which have been encoded as ‘Data unavailable’.
Let’s fix that by reading the data again into R, and saying that the Not Available (NA) data have been encoded as ‘Data unavailable’ via the flag na = 'Data unavailable':

hp <- read_csv(file = 'https://uoepsy.github.io/data/HappyPlanet.csv',
               na = 'Data unavailable')
hp

## # A tibble: 140 x 14
##    country region life_expectancy wellbeing happy_life_years footprint
##    <chr>   <chr>            <dbl>     <dbl>            <dbl>     <dbl>
##  1 Afghan… Middl…            59.7       3.8             12.4      0.79
##  2 Albania Post-…            77.3       5.5             34.4      2.21
##  3 Algeria Middl…            74.3       5.6             30.5      2.12
##  4 Argent… Ameri…            75.9       6.5             40.2      3.14
##  5 Armenia Post-…            74.4       4.3             24.0      2.23
##  6 Austra… Asia …            82.1       7.2             53.1      9.31
##  7 Austria Europe            81.0       7.4             54.4      6.06
##  8 Bangla… Asia …            70.8       4.7             23.3      0.72
##  9 Belarus Post-…            70.9       5.7             34.0      5.09
## 10 Belgium Europe            80.4       6.9             49.5      7.44
## # … with 130 more rows, and 8 more variables: inequality_of_outcomes <dbl>,
## #   inequality_adjusted_life_expectancy <dbl>,
## #   inequality_adjusted_wellbeing <dbl>, happy_planet_index <dbl>,
## #   gdp_per_capita <dbl>, population <dbl>, gini_index <dbl>, hpi_rank <dbl>
…
